<svg width="27" height="28" viewBox="0 0 27 28" fill="none" xmlns="http://www.w3.org/2000/svg">
<path fill-rule="evenodd" clip-rule="evenodd" d="M13.4123 4.07349C10.7163 4.07349 10.3788 4.08474 9.31996 4.13305C8.26312 4.18135 7.54113 4.34944 6.90981 4.59496C6.24805 4.84378 5.64783 5.23422 5.1515 5.73981C4.64672 6.23556 4.25604 6.83536 4.00665 7.49746C3.76246 8.12878 3.59371 8.85143 3.5454 9.90827C3.49775 10.9664 3.48584 11.3033 3.48584 14C3.48584 16.6966 3.49709 17.0335 3.5454 18.0923C3.59371 19.1491 3.7618 19.8711 4.00731 20.5025C4.25613 21.1642 4.64658 21.7644 5.15216 22.2608C5.64793 22.7655 6.24772 23.1562 6.90981 23.4056C7.54113 23.6505 8.26312 23.8186 9.31996 23.8669C10.3788 23.9152 10.7163 23.9264 13.4123 23.9264C16.1083 23.9264 16.4458 23.9152 17.5047 23.8669C18.5615 23.8186 19.2835 23.6505 19.9148 23.405C20.5766 23.1561 21.1768 22.7657 21.6731 22.2601C22.1779 21.7644 22.5686 21.1646 22.818 20.5025C23.0628 19.8711 23.2309 19.1491 23.2792 18.0923C23.3275 17.0335 23.3388 16.696 23.3388 14C23.3388 11.3039 23.3275 10.9664 23.2792 9.9076C23.2309 8.85077 23.0628 8.12878 22.8173 7.49746C22.5681 6.83507 22.1774 6.23502 21.6725 5.73915C21.1767 5.23437 20.5769 4.84369 19.9148 4.5943C19.2835 4.3501 18.5608 4.18135 17.504 4.13305C16.4458 4.0854 16.109 4.07349 13.4123 4.07349ZM13.4123 5.86224C16.0627 5.86224 16.377 5.87216 17.4239 5.91981C18.3914 5.96415 18.9169 6.12496 19.2669 6.26194C19.7302 6.44128 20.0611 6.65702 20.4085 7.00378C20.7559 7.35121 20.971 7.68209 21.1503 8.14532C21.2866 8.4954 21.4481 9.02084 21.4925 9.98834C21.5401 11.0353 21.55 11.3496 21.55 14C21.55 16.6503 21.5401 16.9647 21.4925 18.0116C21.4481 18.9791 21.2873 19.5045 21.1503 19.8546C20.9915 20.2858 20.738 20.6758 20.4085 20.9961C20.0882 21.3257 19.6982 21.5792 19.2669 21.738C18.9169 21.8743 18.3914 22.0358 17.4239 22.0801C16.377 22.1278 16.0633 22.1377 13.4123 22.1377C10.7613 22.1377 10.4476 22.1278 9.40069 22.0801C8.43319 22.0358 7.90775 21.875 7.55768 21.738C7.12651 21.5791 6.73643 21.3256 6.41613 20.9961C6.08669 20.6758 5.8332 20.2857 5.6743 19.8546C5.53797 19.5045 5.3765 18.9791 5.33216 18.0116C5.28452 16.9647 5.27459 16.6503 5.27459 14C5.27459 11.3496 5.28452 11.0353 5.33216 9.98834C5.3765 9.02084 5.53731 8.4954 5.6743 8.14532C5.85363 7.68209 6.06937 7.35121 6.41613 7.00378C6.73639 6.67425 7.12648 6.42075 7.55768 6.26194C7.90775 6.12562 8.43319 5.96415 9.40069 5.91981C10.4476 5.87216 10.7619 5.86224 13.4123 5.86224Z" fill="#C23D78"/>
<path fill-rule="evenodd" clip-rule="evenodd" d="M13.4118 17.3119C12.9768 17.3119 12.5461 17.2263 12.1443 17.0598C11.7424 16.8934 11.3773 16.6494 11.0697 16.3418C10.7622 16.0343 10.5182 15.6691 10.3518 15.2673C10.1853 14.8654 10.0996 14.4348 10.0996 13.9998C10.0996 13.5648 10.1853 13.1341 10.3518 12.7323C10.5182 12.3305 10.7622 11.9653 11.0697 11.6578C11.3773 11.3502 11.7424 11.1062 12.1443 10.9398C12.5461 10.7733 12.9768 10.6877 13.4118 10.6877C14.2902 10.6877 15.1327 11.0366 15.7538 11.6578C16.375 12.2789 16.7239 13.1214 16.7239 13.9998C16.7239 14.8782 16.375 15.7207 15.7538 16.3418C15.1327 16.963 14.2902 17.3119 13.4118 17.3119ZM13.4118 8.89759C12.0586 8.89759 10.7608 9.43514 9.80397 10.392C8.84712 11.3488 8.30957 12.6466 8.30957 13.9998C8.30957 15.353 8.84712 16.6508 9.80397 17.6076C10.7608 18.5645 12.0586 19.102 13.4118 19.102C14.765 19.102 16.0627 18.5645 17.0196 17.6076C17.9764 16.6508 18.514 15.353 18.514 13.9998C18.514 12.6466 17.9764 11.3488 17.0196 10.392C16.0627 9.43514 14.765 8.89759 13.4118 8.89759ZM19.9983 8.80494C19.9983 9.12481 19.8713 9.43158 19.6451 9.65776C19.4189 9.88394 19.1121 10.011 18.7923 10.011C18.4724 10.011 18.1656 9.88394 17.9394 9.65776C17.7133 9.43158 17.5862 9.12481 17.5862 8.80494C17.5862 8.48507 17.7133 8.17831 17.9394 7.95213C18.1656 7.72594 18.4724 7.59888 18.7923 7.59888C19.1121 7.59888 19.4189 7.72594 19.6451 7.95213C19.8713 8.17831 19.9983 8.48507 19.9983 8.80494Z" fill="#C23D78"/>
</svg>
